RaceNumber;CardNumbers;MembershipNumbers;Name;Category;Club;Country;CourseClass;StartTime;StartTimePreference;EnvelopeNumber;NonCompetitive;Seeded;NotUsed;Handicap;RegistrationNotes;SiEntriesIDs;Eligibility;SocialMedia;GenderDOB;Forenames;Surnames;NotUsed;NotUsed;NotUsed;NotUsed;CustomField1;CustomField2;CustomField3;CustomField4;CustomField5;CustomField6;CustomField7;CustomField8;CustomField9;CustomField10;CustomField11;CustomField12
1;;;Pahraz Salman Alparisi;;Titipan Ilahi;;EIS - Men Pro (17-up);;;;;;;;;;;;;;;;;;;;;;;;;;;;;;
2;;;Rama Teguh Adi Pratama;;ERTAP SPORT MANAGEMENT;;EIS - Men Pro (17-up);;;;;;;;;;;;;;;;;;;;;;;;;;;;;;
3;;;Agung prio apriliano;;CWS racingteam - ISSI SUMSEL;;EIS - Men Pro (17-up);;;;;;;;;;;;;;;;;;;;;;;;;;;;;;
4;;;Yadi mulyadi;;SATSET BATBET RACING TEAM;;EIS - Men Pro (17-up);;;;;;;;;;;;;;;;;;;;;;;;;;;;;;
5;;;Tyo Cahyadi;;WHYDOIRIDE Racing Team;;EIS - Men Pro (17-up);;;;;;;;;;;;;;;;;;;;;;;;;;;;;;
6;;;Dylan Muhamad Ronald;;Privateer;;EIS - Men Pro (17-up);;;;;;;;;;;;;;;;;;;;;;;;;;;;;;
7;;;Muhamad Rizky Syabani;;SATSET BATBET RACING TEAM;;EIS - Men Pro (17-up);;;;;;;;;;;;;;;;;;;;;;;;;;;;;;
8;;;Hildan Afosma Katana;;Spartan racing team;;EIS - Men Pro (17-up);;;;;;;;;;;;;;;;;;;;;;;;;;;;;;
9;;;Dimas Pamungkas;;KURNIA BIKE BATAM;;EIS - Men Pro (17-up);;;;;;;;;;;;;;;;;;;;;;;;;;;;;;
10;;;Ananda Bagus Effendy Dwi Putra;;Kanvillagers Racing Team;;EIS - Men Pro (17-up);;;;;;;;;;;;;;;;;;;;;;;;;;;;;;
11;;;Taufik Prastana;;KEDAI OLVAN SQUAD;;EIS - Men Pro (17-up);;;;;;;;;;;;;;;;;;;;;;;;;;;;;;
12;;;Dhiki farhan mauludin;;ISSI KENDAL PWRS;;EIS - Men Pro (17-up);;;;;;;;;;;;;;;;;;;;;;;;;;;;;;
13;;;Sugianto;;Titipanillahi;;EIS - Men Pro (17-up);;;;;;;;;;;;;;;;;;;;;;;;;;;;;;
14;;;MULYADI;;GMT ( Ganas Madu Team ) SUBANG;;EIS - Men Pro (17-up);;;;;;;;;;;;;;;;;;;;;;;;;;;;;;
15;;;Yavento Ditra Pranata;;Spartan Racing Team;;EIS - Men Pro (17-up);;;;;;;;;;;;;;;;;;;;;;;;;;;;;;